Chess> new single
Chess> print
8 bbbbbbbb
7 ........
6 ........
5 ........
4 ........
3 ........
2 ........
1 wwwwwwww
  ABCDEFGH
Player's turn: White
Chess> move f1 f3
Error! Could not move f1 to f3.
Chess> MOVE F1 F3
White moved F1 to F3
Chess> print
8 bbbbbbb.
7 .......b
6 ........
5 ........
4 ........
3 .....w..
2 ........
1 wwwww.ww
  ABCDEFGH
Player's turn: White
Chess> 
